…
This will show how to do regression with categorical variables, and look
at similarities with hypothesis testing using t-tests. I’ll go into
what’s happening in the background and why we can get the same result
from a t-test and regression.

``` r
library(palmerpenguins)
library(ggplot2)
library(scatterplot3d)

penguins
```

    ## # A tibble: 344 x 8
    ##    species island bill_length_mm bill_depth_mm flipper_length_~ body_mass_g
    ##    <fct>   <fct>           <dbl>         <dbl>            <int>       <int>
    ##  1 Adelie  Torge~           39.1          18.7              181        3750
    ##  2 Adelie  Torge~           39.5          17.4              186        3800
    ##  3 Adelie  Torge~           40.3          18                195        3250
    ##  4 Adelie  Torge~           NA            NA                 NA          NA
    ##  5 Adelie  Torge~           36.7          19.3              193        3450
    ##  6 Adelie  Torge~           39.3          20.6              190        3650
    ##  7 Adelie  Torge~           38.9          17.8              181        3625
    ##  8 Adelie  Torge~           39.2          19.6              195        4675
    ##  9 Adelie  Torge~           34.1          18.1              193        3475
    ## 10 Adelie  Torge~           42            20.2              190        4250
    ## # ... with 334 more rows, and 2 more variables: sex <fct>, year <int>
…
We can manually create this coding and verify we get the exact same
result:

``` r
# Manually create dummy variables:
penguins_df$x1 = ifelse(penguins_df$species == 'Chinstrap',1,0)
penguins_df$x2 = ifelse(penguins_df$species == 'Gentoo',1,0)

penguins_df
```

    ## # A tibble: 333 x 10
    ##    species island bill_length_mm bill_depth_mm flipper_length_~ body_mass_g
    ##    <fct>   <fct>           <dbl>         <dbl>            <int>       <int>
    ##  1 Adelie  Torge~           39.1          18.7              181        3750
    ##  2 Adelie  Torge~           39.5          17.4              186        3800
    ##  3 Adelie  Torge~           40.3          18                195        3250
    ##  4 Adelie  Torge~           36.7          19.3              193        3450
    ##  5 Adelie  Torge~           39.3          20.6              190        3650
    ##  6 Adelie  Torge~           38.9          17.8              181        3625
    ##  7 Adelie  Torge~           39.2          19.6              195        4675
    ##  8 Adelie  Torge~           41.1          17.6              182        3200
    ##  9 Adelie  Torge~           38.6          21.2              191        3800
    ## 10 Adelie  Torge~           34.6          21.1              198        4400
    ## # ... with 323 more rows, and 4 more variables: sex <fct>, year <int>,
    ## #   x1 <dbl>, x2 <dbl>
…
